<?xml version="1.0" encoding="utf-8"?>
<!-- Generator: Adobe Illustrator 21.0.0, SVG Export Plug-In . SVG Version: 6.00 Build 0)  -->
<svg version="1.1" id="Layer_1" xmlns="http://www.w3.org/2000/svg" xmlns:xlink="http://www.w3.org/1999/xlink" x="0px" y="0px"
	 viewBox="0 0 289 280" style="enable-background:new 0 0 289 280;" xml:space="preserve">
<style type="text/css">
	.st0{fill:#FBFBFB;}
	.st1{fill:#EE4A23;}
	.st2{fill:#B01117;}
</style>
<g>
	<g>
		<path class="st0" d="M391.9,800.9c0,0.9-0.2,1.1-1.1,1.1c-159.7,0-319.4,0-479,0c-0.9,0-1.1-0.2-1.1-1.1c0-79.9,0-159.8,0-239.6"
			/>
		<path class="st1" d="M186.4,152.6c-2.4,5.2-5.4,10.1-8.8,14.8c-15.1,21-35.4,33.6-60.7,38.5c-10.7,2-21.4,2.2-32.1,1
			c-19.7-2.3-37.3-9.7-52.4-22.7C20.3,173.5,11,160.8,5.9,145.4c-1.4-4.1-2.3-8.3-2.2-12.7c0.3-10.1,5-17.7,13.7-22.6
			c6.5-3.7,13.7-4.8,21.1-4.8c17,0,31.8,6,45,16.5c7.1,5.7,13.6,12.2,20.1,18.6c4.8,4.7,9.7,9.4,15.1,13.6c0.5,0.4,0.9,0.8,1.5,0.9
			c0.6,0.1,1,0.5,1.5,0.8c5.8,4.2,12.1,7.2,19.2,8.7c2.6,0.6,5.3,0.8,8,0.9c4.9,0.1,9.7-0.1,14.5-1.1c6.6-1.3,12.6-4.1,18-8
			c1.4-1,2.7-2.1,4.1-3.1C185.7,152.8,185.9,152.4,186.4,152.6z"/>
		<path class="st1" d="M218.1,80.7c-2.7,1.7-5,3.8-7.4,5.9c-6.4,5.6-12.2,11.8-18.3,17.6c-6.8,6.5-13.9,12.5-22.1,17.2
			c-8.6,4.9-17.8,7.8-27.7,8.6c-7.7,0.6-15.3,0.3-22.7-2.5c-8.4-3.2-14.5-8.7-17.2-17.6c-1.7-5.6-1.3-11.3,0.3-16.9
			c3.1-11.4,8.9-21.4,16.5-30.4c14.7-17.6,33.4-28.5,55.9-32.8c23.3-4.4,45.7-1.7,67,9.2c16.9,8.7,29.6,21.7,39,38.1
			c1.1,1.8,2.1,3.6,2.9,5.6c-0.7,0.2-1-0.3-1.5-0.6c-3.5-2.7-7-5.3-11-7.2c-5.3-2.5-10.8-3.9-16.6-4.4c-3.5-0.3-7-0.3-10.5-0.1
			c-5.3,0.3-10.4,1.7-15.2,3.9c-3.5,1.6-6.8,3.4-9.8,5.7C219.1,80.4,218.6,80.6,218.1,80.7z"/>
		<path class="st1" d="M208,173.6c-0.5-3.9-1.6-7.6-2.8-11.3c-1.9-6.2-4-12.3-5.3-18.6c-2.3-11.4-0.9-22.2,5.2-32.2
			c1.4-2.4,3.2-4.5,5.4-6.2c6.6-5.4,14.7-5.5,21.5-0.2c5.8,4.6,9.9,10.5,12.9,17.2c7.8,17,7.5,34-0.1,50.9
			c-6.6,14.6-17,25.4-31.8,31.7c-7.9,3.4-16.3,4.8-24.9,4.7c0.1-0.6,0.6-0.7,1-0.9c7.1-3,12.2-8.1,15.7-15c3.1-6,3.8-12.2,3-18.7
			C207.8,174.6,207.7,174.1,208,173.6z"/>
		<path class="st1" d="M107,231.6c0.5,0,0.9-0.4,1.3-0.6c4.5-3.2,8.5-7.1,12.7-10.6c4.8-4,9.8-7.7,16-9.5c6.3-1.8,12.6-2.3,18.8,0.1
			c5.2,2,8.5,5.7,9,11.4c0.3,3.2-0.6,6.2-2,9c-6.1,12.9-16.2,21.3-29.9,24.9c-15.5,4-30,1.6-43.1-8c-6.6-4.8-11.2-11.3-14.6-18.7
			c-0.1-0.1-0.1-0.3-0.1-0.5c0.7-0.2,1.1,0.3,1.4,0.7c5.3,4.6,11.5,6.3,18.3,5.9c3.7-0.2,7.2-1.4,10.4-3.3
			C105.8,232.1,106.3,231.7,107,231.6z"/>
		<path class="st2" d="M186.4,152.6c-3.9,3.2-7.9,6.1-12.4,8.3c-4.5,2.2-9.3,3.5-14.4,4.2c-3,0.4-6,0.6-9,0.6
			c-5.9,0-11.6-1-17.1-3.2c-4.5-1.8-8.7-4.2-12.6-7c-0.3-0.2-0.5-0.4-0.7-0.6c5.5-1.7,10.3-4.7,15.1-7.6c6.2-3.8,12.3-7.8,19-10.9
			c6.4-3,13.1-5,20.3-4.9c2.1,0,4.1,0.3,6.1,1c6.7,2.4,9.9,9.3,7.6,16.4C187.8,150.2,187.3,151.5,186.4,152.6z"/>
		<path class="st2" d="M218.1,80.7c6.6-4.9,13.7-8.5,21.8-10.1c4.5-0.9,9.1-0.8,13.6-0.6c6.9,0.3,13.6,1.9,19.8,5.2
			c3.6,1.9,6.8,4.2,10,6.8c0.3,0.2,0.7,0.4,1,0.7c2.4,3.6,3.3,7.5,2.3,11.7c-1.2,5.1-5.4,8.6-11,9.4c-6.8,0.9-13.3-0.5-19.5-3
			C248.9,98.1,242.4,94,236,90c-4.7-2.9-9.4-6-14.6-8.1C220.3,81.5,219.2,81.1,218.1,80.7z"/>
		<path class="st2" d="M208,173.6c0.6,3.1,0.7,6.2,0.4,9.3c-0.3,4.8-2.1,9.1-4.5,13.2c-3.5,6.1-8.6,10.4-15.1,13.1
			c-0.3,0.1-0.5,0.3-0.7,0.4c-4.8,0.5-8.7-2.2-9.5-6.4c-0.4-2.3,0.3-4.3,1.3-6.3c1.9-3.9,4.9-7,8.3-9.6c2.6-2.1,5.5-3.9,8.4-5.6
			C200.5,179.2,204.6,176.9,208,173.6z"/>
		<path class="st2" d="M107,231.6c-1.6,1.5-3.6,2.4-5.6,3.1c-7.8,2.7-15.2,1.8-22.2-2.4c-1.5-0.9-2.7-2-4.1-3.1
			c-1.4-2.3-1.8-4.7-0.5-7.1c1.3-2.4,3.5-3.2,6.1-3.2c3.7,0,7,1.2,10.1,2.8c3.2,1.6,6,3.7,9,5.7C102.1,228.9,104.4,230.5,107,231.6z
			"/>
	</g>
</g>
</svg>
