<?xml version="1.0" encoding="iso-8859-1"?>
<!-- Generator: Adobe Illustrator 19.0.0, SVG Export Plug-In . SVG Version: 6.00 Build 0)  -->
<svg xmlns="http://www.w3.org/2000/svg" xmlns:xlink="http://www.w3.org/1999/xlink" version="1.1" id="Layer_1" x="0px" y="0px" viewBox="0 0 512 512" style="enable-background:new 0 0 512 512;" xml:space="preserve">
<polygon style="fill: #dfeaf7;" points="360.129,172.138 256,472.276 512,172.138 "/>
<g>
	<polygon style="fill: #d8eaff;" points="105.931,39.724 0,172.138 151.871,172.138  "/>
	<polygon style="fill: #eef6ff;" points="360.129,172.138 512,172.138 406.069,39.724  "/>
	<polygon style="fill: #f7fafd;" points="360.129,172.138 256,39.724 151.871,172.138  "/>
</g>
<polygon style="fill: #eaf0f7;" points="256,39.724 105.931,39.724 151.871,172.138 "/>
<polygon style="fill: #e8eef5;" points="406.069,39.724 256,39.724 360.129,172.138 "/>
<polygon style="fill: #ebf4ff;" points="151.871,172.138 256,472.276 360.129,172.138 "/>
<polygon style="fill: #c7dffb;" points="0,172.138 256,472.276 151.871,172.138 "/>
</svg>