<?xml version="1.0" encoding="utf-8"?>
<!-- Generator: Adobe Illustrator 16.0.0, SVG Export Plug-In . SVG Version: 6.00 Build 0)  -->
<!DOCTYPE svg PUBLIC "-//W3C//DTD SVG 1.1//EN" "http://www.w3.org/Graphics/SVG/1.1/DTD/svg11.dtd">
<svg version="1.1" xmlns="http://www.w3.org/2000/svg" xmlns:xlink="http://www.w3.org/1999/xlink" x="0px" y="0px" width="1100px"
	 height="800px" viewBox="0 0 1100 800" enable-background="new 0 0 1100 800" xml:space="preserve">
<g id="Shadow">
	<g opacity="0.3">
		<path fill="#CACACA" d="M517.023,668.118c-29.109,0.084-58.219,0.762-87.276,3.892c-10.956,1.181-21.683,3.776-32.663,4.823
			c-21.935,2.092-43.477,5.994-65.488,7.794c-17.726,1.449-35.526,2.305-53.201,4.143c-16.57,1.725-34.916,1.326-51.359-1.521
			c-12.173-2.108-24.401-3.296-36.37-6.683c-13.389-3.789-27.935-6.497-41.885-6.4c-19.892,0.14-39.265,0.155-58.301,6.846
			c-6.683,2.348-14.863,6.208-19.938,11.137c-11.616,11.281-13.189,39.432-1.59,51.133c19.536,19.693,61.233,27.42,88.617,27.785
			c30.008,0.399,59.159-1.758,89.211-3.026c27.924-1.179,55.779-2.856,83.75-2.797c57.127,0.12,114.262,0,171.287-3.696
			c53.575-3.473,107.285-2.28,160.978-2.28c55.061,0,109.748,0.419,164.41,7.507c23.817,3.088,48.082,4.169,72.018,6.332
			c21.438,1.938,42.038-0.038,63.391-1.829c17.929-1.504,35.741-5.964,52.029-13.502c12.893-5.968,35.879-24.508,39.833-38.752
			c11.085-39.936-156.22-38.975-181.907-38.885c-28.736,0.1-57.701,1.016-86.415-0.045c-12.078-0.447-23.979-2.732-35.767-5.238
			c-11.742-2.496-23.572-1.861-35.48-2.91c-49.654-4.373-99.421-3.734-149.234-3.734
			C549.46,668.209,533.242,668.071,517.023,668.118z"/>
	</g>
</g>
<g id="Object">
	<g>
		<g>
			<g>
				<polygon fill="#292949" points="286.762,571.652 289.327,631.156 281.807,732.333 270.553,733.133 256.88,641.24 
					237.966,563.481 				"/>
				<polygon fill="#556362" points="270.955,737.874 283.557,743.094 289.209,736.576 282.692,730.924 270.522,731.789 				"/>
			</g>
			<g>
				<polygon fill="#292949" points="207.1,550.596 204.63,595.574 211.957,729.312 223.225,729.874 240.113,642.16 255.008,545.971 
									"/>
				<polygon fill="#556362" points="222.923,734.622 210.434,740.106 204.646,733.709 211.042,727.921 223.228,728.53 				"/>
			</g>
			<g>
				<path fill="#D67086" d="M272.615,418.095l-35.162-3.768c0,0-19.561,2.091-32.833,48.544
					c-7.384,25.846-9.632,66.564-10.173,97.608c0.831,4.428,5.655,23.825,26.055,20.534c35.033-5.65,53.679-11.301,68.935-8.475
					c12.995,2.824,11.896-15.068,10.469-28.723l-5.179-42.248L272.615,418.095z"/>
			</g>
			<g>
				<path fill="#EAC1A4" d="M265.825,374.327c-8.863-1.954-17.984-3.704-26.856-1.948c-1.943,0.385-4.028,1.061-5.083,2.738
					c-0.408,0.65-0.624,1.399-0.823,2.141c-2.239,8.323-5.079,20.659,0.399,28.327c1.045,1.462,2.448,2.623,3.956,3.565
					c2.016,1.26,4.248,2.116,6.556,2.572c-0.478,2.068-1.143,4.095-1.985,6.044c2.029,3.059,11.493,3.426,13.243,0.493
					c0.098-2.538,0.196-5.076,0.294-7.614c1.152-0.465,2.266-1.03,3.311-1.719c4.045-2.665,6.71-6.707,8.258-11.23
					c1.686-4.925,4.058-9.606,5.598-14.626c0.561-1.829,1.003-3.916,0.042-5.569c-1.024-1.76-3.235-2.358-5.222-2.802
					C266.95,374.576,266.388,374.451,265.825,374.327z"/>
				<path fill="#292949" d="M236.327,379.085c4.38-2.817,10.952-4.03,15.071-3.731c12.452,0.902,17.015,10.047,17.68,21.496
					c3.431-4.36,9.868-9.844,10.257-15.455c0.318-4.592-0.317-10.854-2.89-14.82c-2.407-3.711-8.563-5.75-12.224-7.9
					c-3.451-2.027-6.902-4.054-10.352-6.081c-0.718-0.422-1.456-0.851-2.276-0.994c-0.97-0.168-1.958,0.08-2.912,0.326
					c-8.156,2.108-16.312,4.216-24.468,6.324c-1.567,0.405-3.353,0.996-3.929,2.508c-0.351,0.919-0.145,1.947,0.066,2.909
					c0.926,4.234,2.703,8.562,3.144,12.851c0.498,2.492,1.983,15.263,6.396,13.789c1.295-2.118,1.489-4.728,2.498-6.996
					C233.134,381.634,234.55,380.228,236.327,379.085z"/>
			</g>
			<polygon fill="#D67086" points="237.454,414.327 224.458,418.282 176.994,468.006 174.169,484.393 196.859,521.855 
				202.986,508.124 193.381,480.438 208.637,469.701 228.978,423.933 			"/>
		</g>
		<g>
			<polygon fill="#F0F2F0" points="647.81,32.61 513.289,33.952 419.118,130.021 420.46,264.542 516.529,358.713 651.05,357.371 
				745.221,261.302 743.879,126.782 			"/>
			<polygon fill="#D67086" points="733.22,131.322 643.483,43.357 517.83,44.611 429.865,134.348 431.119,260.002 520.855,347.966 
				646.51,346.712 734.474,256.976 			"/>
			<g>
				<path fill="#FFFFFF" d="M515.629,179.811l0.013,1.296l-14.138,0.141l-0.01-0.971c-0.063-6.259-3.88-10.215-10.14-10.153
					c-6.691,0.067-10.327,3.449-10.282,7.982c0.149,15.002,36.001,5.793,36.272,32.991c0.169,16.945-10.558,23.636-25.884,23.789
					c-13.599,0.135-25.656-7.516-25.808-22.733c-0.009-0.863,0.089-1.836,0.084-2.375l14.354-0.144
					c0.002,0.216-0.096,1.188-0.091,1.728c0.07,7.016,4.435,11.721,11.989,11.646c8.311-0.083,11.181-4.537,11.137-8.854
					c-0.175-17.592-36.011-6.764-36.292-34.933c-0.14-14.031,11.449-20.838,24.509-20.969
					C504.511,158.119,515.477,164.593,515.629,179.811z"/>
				<path fill="#FFFFFF" d="M573.396,171.032l-18.348,0.183l0.616,61.735l-13.815,0.138l-0.616-61.734l-18.348,0.183l-0.123-12.303
					l50.509-0.504L573.396,171.032z"/>
				<path fill="#FFFFFF" d="M639.048,195.095c0.261,26.118-11.273,38.43-30.377,38.621c-19.103,0.19-30.881-11.889-31.142-38.007
					s11.273-38.43,30.377-38.621C627.01,156.896,638.787,168.976,639.048,195.095z M591.749,192.868l0.054,5.396
					c0.147,14.786,5.741,23.689,16.75,23.579c11.008-0.11,16.423-9.123,16.275-23.909l-0.054-5.396
					c-0.147-14.787-5.741-23.689-16.749-23.58C597.017,169.069,591.602,178.082,591.749,192.868z"/>
				<path fill="#FFFFFF" d="M663.09,203.166l0.287,28.708l-13.814,0.137l-0.739-74.037l26.442-0.264
					c15.326-0.153,23.298,9.158,23.426,22.001c0.14,13.923-9.051,23.189-22.974,23.328L663.09,203.166z M662.761,170.14l0.208,20.83
					l11.225-0.112c6.691-0.067,10.32-4.205,10.252-11.004c-0.06-6.043-3.876-9.891-10.46-9.825L662.761,170.14z"/>
			</g>
		</g>
		<g>
			<g>
				<polygon fill="#292949" points="813.024,727.979 813.928,735.003 800.783,743.833 792.855,737.713 798.977,729.785 
					812.121,720.955 				"/>
				<g>
					<polygon fill="#292949" points="813.469,725.621 803.332,636.041 815.528,535.756 812.786,514.423 758.307,512.354 
						756.342,547.074 765.486,636.178 799.895,730.199 					"/>
				</g>
				<g>
					<polygon fill="#292949" points="718.333,522.392 718.189,612.791 736.385,729.162 749.482,729.032 756.682,621.414 
						773.531,513.701 					"/>
					<polygon fill="#292949" points="749.462,734.556 735.369,741.778 728.217,734.768 735.229,727.615 749.392,727.474 					"/>
				</g>
				<g>
					<path fill="#8CABEF" d="M821.166,553.137c-0.125-3.918-0.342-7.187-0.373-8.354c-0.281-10.509-1.217-20.994-2.533-31.428
						c-1.179-9.351-2.666-32.563-4.267-41.855c-1.321-7.672-5.925-26.822-9.251-33.939c-8.272-17.697-5.717-19.333-42.055-24.588
						c-15.926-2.303-19.689,7.622-32.709,19.035c-1.284,1.126-1.214,7.828-1.512,9.604c-0.524,3.125-1.086,6.246-1.73,9.352
						c-0.507,2.44-1.066,4.874-1.693,7.291l0.002-0.001c0,0-10.931,49.741-18.158,60.305c-7.229,10.563-22.161,25.333,2.818,34.351
						c4.426,1.432,8.881,2.793,13.488,3.521c0,0,20.429-2.271,30.935-2.192c9.677,0.073,19.392,1.053,28.904,2.692
						c6.361,1.063,12.853,2.608,18.543,5.581c5.429,2.835,9.347,7.007,14.854,9.943c0.522,0.277,1.094,0.565,1.688,0.483
						C821.281,572.498,821.43,561.382,821.166,553.137z"/>
				</g>
				<g>
					<path fill="#EAC1A4" d="M762.646,417.964c1.833,0.905,6.16,1.229,10.675-0.538c0.909-0.356,1.523-1.233,1.511-2.21
						c-0.036-2.742-0.256-5.481-0.66-8.194c3.386-1.19,7.299-2.976,7.889-6.516c0.186-1.115-0.007-2.254-0.199-3.368
						c-0.796-4.605-1.592-9.21-2.388-13.815c-0.275-1.592-0.567-3.231-1.435-4.597c-1.52-2.395-4.469-3.442-7.264-3.927
						c-7.131-1.238-14.901,0.307-20.43,4.978c-1.473,1.242-2.803,2.737-3.451,4.551c-1,2.796-0.252,5.881,0.502,8.753
						c0.696,2.652,1.393,5.303,2.089,7.955c0.801,3.049,1.956,6.516,4.896,7.66c1.56,0.606,3.401,0.43,4.814,1.328
						C761.686,411.607,761.351,415.312,762.646,417.964z"/>
					<path fill="#292949" d="M721.49,372.039c-0.7-1.15-1.455-2.26-2.299-3.3c-1.829-2.254-4.082-4.187-5.554-6.689
						s-1.989-5.894-0.224-8.198c1.14-1.487,2.988-2.23,4.785-2.76c5.922-1.742,12.313-1.86,18.295-0.338
						c5.697,1.45,10.797,3.852,16.532,1.71c5.39-2.012,9.281-1.192,14.913,0.817c6.096,2.174,14.277,2.688,19.795,5.758
						c2.304,1.282,4.143,3.286,5.575,5.499c4.964,7.668,4.992,18.241,0.067,25.934c-1.105,1.726-2.427,3.304-3.816,4.811
						c-2.875,3.118-6.314,6.97-10.271,8.125c-0.095-3.538,3.129-14.696,0.411-17.597c-4.313-4.602-14.063-2.997-19.413-1.864
						c-5.836,1.237-11.037,5.369-16.823,6.252c-4.162,0.635-9.476-1.407-13.017-3.559
						C726.08,383.983,724.047,376.236,721.49,372.039z"/>
				</g>
				<polygon fill="#6B827C" points="792.855,419.774 815.528,439.642 840.822,492.795 808.875,530.801 803.379,509.547 				"/>
			</g>
			<g>
				<polygon fill="#EAC1A4" points="646.023,435.047 634.764,427.797 637.652,422.85 646.463,426.106 646.743,423.133 
					655.623,430.511 653.314,436.06 				"/>
				<polygon fill="#8CABEF" points="751.462,414.627 692.711,438.715 655.623,430.511 651.999,437.604 685.826,462.508 
					732.449,456.957 				"/>
			</g>
		</g>
		<g>
			<g>
				<polygon fill="#2F2F3F" points="567.176,733.918 566.859,740.066 578.84,746.848 585.305,741.016 579.473,734.551 
					567.492,727.77 				"/>
				<polygon fill="#292949" points="557.408,547.323 556.447,565.996 577.182,648.194 566.635,731.903 578.705,734.97 
					612.217,634.395 612.818,604.129 604.493,541.911 				"/>
			</g>
			<g>
				<polygon fill="#292949" points="649.221,545.558 658.512,623.594 654.602,725.916 643.28,727.131 626.151,634.943 
					600.681,543.651 				"/>
				<polygon fill="#2F2F3F" points="643.858,731.898 656.758,736.705 662.223,729.927 655.444,724.462 643.201,725.776 				"/>
			</g>
		</g>
		<g>
			<path fill="#F7F7F7" d="M653.792,532.566c-11.659-23.743-16.314-49.775-22.423-75.386c-1.805-7.556-3.679-15.274-7.881-21.808
				c-4.826-7.501-11.493-10.862-18.878-12.155c-9.399-1.646-19.962,0.062-29.372,0.849c-5.694,17.787-9.402,7.695-16.088,25.135
				c-1.386,3.614-5.32,34.926-6.779,38.513l0,0c0,0-15.363,48.112-10.446,86.163c0.048,0.377,0.09,0.744,0.133,1.114
				c0.992,0.17,1.943,0.342,2.833,0.522c13.263,2.685,26.791,4.133,40.328,3.956c12.008-0.155,24.016-1.61,35.678-4.495
				c15.964-3.948,34.918-2.335,47.968-12.854C665.039,554.329,657.618,540.357,653.792,532.566z"/>
		</g>
		<g>
			<polygon fill="#F7F7F7" points="516.407,429.352 529.521,358.158 540.665,360.312 541.176,414.033 			"/>
		</g>
		<polygon fill="#F7F7F7" points="516.407,429.352 581.484,471.76 572.235,428.359 532.253,410.105 		"/>
		<g>
			<path fill="#AA6755" d="M600.656,392.993c-8.447-12.729-30.192-12.037-30.508,5.517c-0.095,5.275,0.459,10.693,2.791,15.426
				c2.331,4.732,6.691,8.695,11.91,9.474c0.029,0.005,0.059,0.007,0.088,0.011c0.172,1.347,0.344,2.693,0.515,4.039
				c0.037,0.289,0.088,0.606,0.308,0.797c0.251,0.218,0.625,0.191,0.954,0.152c1.611-0.191,3.223-0.382,4.833-0.573
				c0.799-0.095,1.629-0.2,2.303-0.638c1.477-0.959,1.621-3.08,1.229-4.797c-0.094-0.409-0.209-0.818-0.327-1.229
				C603.059,415.537,606.178,401.313,600.656,392.993z"/>
			<g>
				<path fill="#292949" d="M566.074,378.013c-3.818,0.879-5.517,5.582-8.124,8.725c-2.169,2.615-5.149,4.251-7.522,6.645
					c-2.373,2.393-4.156,6.143-2.918,9.476c-3.502-0.373-7.261-0.689-10.273,1.218c-3.012,1.907-4.511,6.984-1.953,9.682
					c2.29,2.415,6.301,1.622,8.657,3.959c3.727,3.698,1.121,12.734,5.922,14.272c1.155,0.369,2.412,0.074,3.56,0.472
					c1.426,0.493,2.383,1.924,3.404,3.13c4.63,5.464,12.607,7.09,18.56,3.781c3.188-3.363,4.818-8.367,4.516-13.243
					c-0.365-5.877-3.872-6.603-6.265-11.315c-2.615-5.15-3.138-11.486-1.398-16.966c1.131-3.565,3.354-7.128,6.545-8.746
					c1.298-0.657,1.315,0.634,2.422-1.005c0.476-0.703,0.699-2.744,0.565-3.628C576.997,382.974,571.097,376.856,566.074,378.013z"
					/>
				<path fill="#292949" d="M606.908,369.674c2.064-0.212,4.055-1.081,6.132-0.999c3.121,0.123,4.044,2.949,5.74,5.054
					c1.878,2.331,4.491,5.423,7.056,6.802c1.848,0.994,3.949,1.149,5.939,1.695c1.99,0.545,4.07,1.688,4.852,3.771
					c0.739,1.976,0.111,4.257,0.688,6.293c0.911,3.015,2.004,4.313,2.275,7.655c0.141,1.724,0.261,3.561-0.484,5.067
					c-0.98,1.983-3.163,2.809-5.195,3.238s-4.212,0.675-5.844,2.046c-3.541,2.973-1.16,6.799-0.89,10.683
					c0.413,5.91-4.483,11.375-9.885,11.336c-4.58-0.033-8.674-3.729-10.275-8.336c-0.802-2.306-0.728-4.777-1.555-7.076
					c-0.797-2.217-3.224-4.769-1.92-7.287c0.317-0.614,0.851-1.081,1.096-1.734c0.198-0.529,0.188-1.129,0.105-1.699
					c-0.288-1.979-1.462-3.798-3.075-4.766c-1.159-0.696-2.545-0.993-3.487-2.011c-1.08-1.167-1.286-2.946-1.792-4.505
					c-1.225-3.769-4.655-6.589-8.28-6.807c-2.389-0.144-4.427,0.018-6.753-0.714c-0.354-0.111-5.768-2.085-5.569-1.277
					c-0.344-1.407-0.022-2.882,0.347-4.264c0.607-2.272,1.376-4.555,2.791-6.328c4.577-5.734,7.976,2.085,12.314-0.822
					c1.047-0.702,1.498-2.089,2.283-3.122c1.482-1.948,4.04-2.464,6.381-2.358C602.242,369.315,604.583,369.913,606.908,369.674z"/>
			</g>
		</g>
		<g>
			<g>
				<path fill="#F7F7F7" d="M623.408,463.258c1.227,5.42,5.704,10.553,9.648,16.202c4.635,6.636,9.269,13.272,13.902,19.908
					l-15.075,47.792l9.412,3.232l27.175-47.682c-0.027-19.046-17.03-28.807-21.49-39.5c-2.322-5.567-20.17-22.785-23.492-27.838
					c-4.889-7.433,1.762,5.127-4.217,11.169C614.26,451.605,622.436,458.957,623.408,463.258z"/>
			</g>
			<polygon fill="#AA6755" points="638.663,553.27 636.723,555.887 632.183,554.802 628.412,557.298 627.516,554.869 
				634.096,548.024 639.148,549.747 			"/>
		</g>
		<polygon fill="#AA6755" points="532.037,354.492 536.918,346.354 539.438,352.058 542.269,350.22 543.334,353.449 
			539.724,360.158 532.141,358.688 		"/>
		<g>
			<polygon fill="#292949" points="421.243,721.465 433.703,728.315 432.621,734.166 410.478,731.126 411.667,722.701 			"/>
			<polygon fill="#292949" points="364.897,727.881 356.23,727.776 354.114,735.115 354.333,735.178 354.278,735.185 
				368.713,743.483 375.534,744.151 376.297,736.356 374.439,735.033 			"/>
			<path fill="#2F2F3F" d="M391.623,589.637c1.392-0.145,5.19,49.728,5.19,49.728l-26.977,90.631l-15.555-3.062l9.476-90.49
				c0,0-32.929-37.972-23.446-66.336C354.639,577.055,391.623,589.637,391.623,589.637z"/>
			<path fill="#2F2F3F" d="M430.488,590.06l3.148,44.466l-8.679,88.502l-16.012-0.816c0,0-3.858-83.825-5.444-85.535
				c-1.586-1.711-15.222-45.694-15.222-45.694L430.488,590.06z"/>
			<g>
				<path fill="#8CABEF" d="M409.439,610.353c-50.851-0.934-54.583-26.592-65.779-29.391c-11.196-2.8-5.359-16.132-5.359-16.132
					s2.119-5.949,3.027-9.061c6.53-22.389,26.138-51.127,26.144-51.137c9.67-13.196,19.378-24.854,27.759-31.891
					c24.926-20.932,51.626-21.91,51.626-21.91c38.458,12.025,24.885,30.106,25.326,34.863
					c-12.649,11.594-21.812,28.964-28.57,47.615c-3.185,9.881-6.941,26.941-4.316,47.651c0.842,6.644,1.815,12.403,2.781,17.418
					C442.265,604.928,435.968,610.773,409.439,610.353z"/>
				<path fill="#FFFFFF" d="M447.005,454.885c0,0,8.56-4.689,13.861,3.465c6.435,9.9-29.943,54.551-29.08,150.041
					c-9.532,1.931-34.099,6.539-59.437-5.418C378.106,574.603,402.948,489.041,447.005,454.885z"/>
			</g>
			<polygon fill="#EBCEB1" points="482.312,595.421 492.261,604.65 496.391,600.57 490.978,592.742 493.826,591.719 
				484.351,584.857 479.484,588.52 			"/>
			<path fill="#8CABEF" d="M472.095,468.256l3.473,8.055l-3.316,59.221c0,0,17.529,50.693,17.056,50.693s-11.845,3.79-11.845,3.79
				l-25.583-51.167v-31.269L472.095,468.256z"/>
			<g>
				<path fill="#292949" d="M465.821,424.733c4.309,3.362,8.048,10.509,6.564,16.134c-0.715,2.709-2.67,4.524-3.32,7.455
					c-1.304,5.771-11.34,10.021-7.118,16.721c2.17,3.442,6.373,4.897,10.256,6.115c0.471,0.146,0.966,0.296,1.45,0.2
					c0.797-0.157,1.333-0.953,1.481-1.752c0.148-0.799-0.003-1.618-0.088-2.427c-0.884-8.451,4.836-16.912,6.955-24.898
					c2.115-7.972,2.005-17.073-3.521-23.694c-4.713,0.437-6.621-0.472-9.646,3.168L465.821,424.733z"/>
				<path fill="#EAC1A4" d="M455.729,458.534c5.609,0.44,11.089-2.634,14.646-6.994c3.556-4.36,5.429-9.857,6.593-15.362
					c3.875-18.317-18.558-24.243-30.383-13.038C436.278,432.904,439.419,457.252,455.729,458.534z"/>
				<path fill="#292949" d="M427.799,455.095c2.981-0.22,5.954-0.528,8.626-2.457c4.318-3.117,6.866-10.142,9.517-14.589
					c2.792-4.689,5.987-9.719,11.143-11.508c3.367-1.17,6.357-0.408,9.521,0.859c2.166,0.867,1.907,1.717,4.21,1.325
					c1.766-0.3,4.066-2.442,5.036-3.853c1.638-2.379,1.744-5.566,0.875-8.32c-1.339-4.236-3.828-7.105-7.784-8.87
					c-13.888-6.194-27.898-2.301-37.599,9.735c-4.662,5.784-6.333,13.703-11.019,19.188c-2.894,3.386-6.493,4.939-9.257,8.678
					c-7.173,9.701-18.945,21.015-23.182,32.381c-0.157,0.42-0.3,0.898-0.106,1.304c0.396,0.823,1.627,0.539,2.445,0.131
					c4.775-2.382,9.55-4.765,14.325-7.147c1.875-0.936,3.777-1.89,5.322-3.307c3.846-3.525,5.179-9.615,9.848-11.945
					C422.266,455.428,425.036,455.299,427.799,455.095z"/>
			</g>
			<g>
				<polygon fill="#8CABEF" points="408.292,479.152 369.917,470.15 359.66,419.15 372.4,420.263 382.234,453.569 431.98,454.99 
					434.823,458.78 				"/>
			</g>
		</g>
		<path fill="#EBCEB1" d="M370.352,420.084l-1.254-13.373l-9.472-7.244l-0.558,3.9l3.344,3.344c0,0,0.835,3.9,3.204,5.851
			c-0.279,2.229-2.089,6.965-2.089,6.965L370.352,420.084z"/>
		<g>
			<path fill="#E7AD47" d="M1011.646,464.693L894.92,347.968c-9.806-9.806-25.703-9.806-35.51,0L742.685,464.693
				c-9.806,9.806-9.806,25.704,0,35.51L859.41,616.929c9.807,9.806,25.704,9.806,35.51,0l116.726-116.726
				C1021.451,490.397,1021.451,474.499,1011.646,464.693z"/>
			<path fill="#292949" d="M931.638,492.234v-41.42c0-30.037-24.437-54.473-54.473-54.473s-54.472,24.436-54.472,54.473v95.541
				h26.66v-95.541c0-15.336,12.477-27.813,27.813-27.813c15.335,0,27.812,12.477,27.812,27.813v41.42h-28.599l41.929,54.121
				l41.929-54.121H931.638z"/>
		</g>
		<g>
			<path fill="#F0F2F0" d="M576.266,512.322c-19.265-19.265-44.878-29.874-72.122-29.874c-27.244,0-52.857,10.609-72.121,29.874
				c-19.265,19.264-29.874,44.877-29.874,72.121s10.609,52.857,29.874,72.121c19.264,19.265,44.877,29.874,72.121,29.874
				c27.244,0,52.857-10.609,72.122-29.874c19.264-19.264,29.873-44.877,29.873-72.121S595.529,531.586,576.266,512.322z"/>
			<circle fill="#3B3387" cx="504.144" cy="584.443" r="94.791"/>
			<rect x="431.854" y="569.566" fill="#FFFFFF" width="144.58" height="29.754"/>
		</g>
		<polygon fill="#EAC1A4" points="321.267,324.752 324.571,308.868 318.188,303.111 313.353,308.828 312.007,315.296 
			307.913,316.063 309.919,327.155 		"/>
		<polygon fill="#D67086" points="272.095,418.238 301.077,397.598 309.919,327.155 321.267,324.752 320.787,397.976 
			312.813,414.592 278.671,445.668 		"/>
		<g>
			<circle fill="#292949" cx="171.83" cy="501.006" r="75.912"/>
			<path fill="#FFFFFF" d="M211.481,487.049l-36.403-28.201v18.522h-10.095c-18.089,0-32.806,14.716-32.806,32.806v32.988h19.359
				v-32.988c0-7.415,6.032-13.447,13.446-13.447h10.095v18.522L211.481,487.049z"/>
		</g>
		<g>
			<path fill="#FFD400" d="M391.298,328.485L279.163,126.737c-5.088-9.154-18.179-9.368-23.564-0.384l-118.65,197.985
				c-5.384,8.984,0.977,20.428,11.449,20.599l230.786,3.762C389.656,348.87,396.387,337.64,391.298,328.485z"/>
			<g>
				<path fill="#6B6B6B" d="M256.531,279.428l-7.365-89.017l34.334,0.743l-10.076,88.549L256.531,279.428z M249.718,291.807
					l29.93,0.487l-0.482,29.563l-29.931-0.488L249.718,291.807z"/>
			</g>
		</g>
	</g>
</g>
</svg>
