<?xml version="1.0" encoding="utf-8"?>
<!-- Generator: Adobe Illustrator 16.0.0, SVG Export Plug-In . SVG Version: 6.00 Build 0)  -->
<!DOCTYPE svg PUBLIC "-//W3C//DTD SVG 1.1//EN" "http://www.w3.org/Graphics/SVG/1.1/DTD/svg11.dtd">
<svg version="1.1" xmlns="http://www.w3.org/2000/svg" xmlns:xlink="http://www.w3.org/1999/xlink" x="0px" y="0px" width="500px"
	 height="500px" viewBox="0 0 500 500" enable-background="new 0 0 500 500" xml:space="preserve">
<g id="BACKGROUND">
	<g>
		<g>
			<linearGradient id="SVGID_1_" gradientUnits="userSpaceOnUse" x1="212.874" y1="293.6514" x2="278.119" y2="492.2236">
				<stop  offset="0" style="stop-color:#FFADA6"/>
				<stop  offset="0.9892" style="stop-color:#FFE7DB"/>
			</linearGradient>
			<path fill="url(#SVGID_1_)" d="M465.299,346.61c-12.328-12.328-42.028-26.826-86.091-20.294
				c-14.114,2.093-27.629,8.73-41.882,8.056c-27.951-1.322-44.865-32.003-70.617-42.953c-23.097-9.82-50.495-2.085-70.97,12.431
				c-20.474,14.515-35.783,34.98-52.223,53.944s-35.246,37.297-59.089,45.135c-12.424,4.083-25.703,5.123-38.06,9.407
				c-12.356,4.283-26.218,11.891-27.292,25.777s44.091,44.277,67.008,18.582s312.515,71.695,363.216-2
				C509,379,467.005,348.316,465.299,346.61z"/>
		</g>
	</g>
</g>
<g id="OBJECTS">
	<path fill="#C8C8C8" d="M406.32,398.452c-2.32-8.119-56.357,0.497-124.834,9.269c-68.476,8.771-123.608,18.842-123.14,22.494
		s43.844,5.557,112.321-3.215C339.143,418.229,407.332,401.992,406.32,398.452z"/>
	<path fill="#C8C8C8" d="M356.548,439.432c-0.696-6.675-17.378-4.559-38.511-3.589c-21.134,0.97-38.156,4.149-38.021,7.101
		c0.136,2.952,13.505,8.284,34.639,7.314S356.852,442.343,356.548,439.432z"/>
	<g>
		<linearGradient id="SVGID_2_" gradientUnits="userSpaceOnUse" x1="368.5977" y1="111.9204" x2="463.1162" y2="111.9204">
			<stop  offset="0" style="stop-color:#453AE9"/>
			<stop  offset="0.2124" style="stop-color:#453FE9"/>
			<stop  offset="0.4732" style="stop-color:#434EE8"/>
			<stop  offset="0.7581" style="stop-color:#4167E7"/>
			<stop  offset="1" style="stop-color:#3F82E6"/>
		</linearGradient>
		<path fill="url(#SVGID_2_)" d="M369.823,128.623c-3.27-7.273,0.266-16.853,7.476-20.259c7.211-3.407,16.855-0.054,20.398,7.091
			c0.203-7.64,6.226-14.732,13.732-16.169c7.506-1.438,15.723,2.927,18.734,9.952c-0.979-6.816,4.435-13.644,11.17-15.078
			c6.734-1.435,13.986,2.031,17.903,7.694c3.917,5.664,4.721,13.123,3.067,19.808c-0.703,2.846-1.998,5.795-4.554,7.234
			c-1.996,1.123-4.407,1.128-6.697,1.104"/>
	</g>
	<g>
		
			<linearGradient id="SVGID_3_" gradientUnits="userSpaceOnUse" x1="65.2642" y1="69.2534" x2="159.7827" y2="69.2534" gradientTransform="matrix(-1 0 0 1 206.3799 0)">
			<stop  offset="0" style="stop-color:#453AE9"/>
			<stop  offset="0.2124" style="stop-color:#453FE9"/>
			<stop  offset="0.4732" style="stop-color:#434EE8"/>
			<stop  offset="0.7581" style="stop-color:#4167E7"/>
			<stop  offset="1" style="stop-color:#3F82E6"/>
		</linearGradient>
		<path fill="url(#SVGID_3_)" d="M139.89,85.957c3.27-7.274-0.265-16.853-7.476-20.26c-7.21-3.406-16.855-0.053-20.397,7.091
			c-0.203-7.64-6.226-14.731-13.732-16.169s-15.723,2.927-18.734,9.952c0.979-6.816-4.435-13.644-11.17-15.078
			c-6.735-1.434-13.987,2.032-17.904,7.695c-3.917,5.664-4.721,13.123-3.068,19.808c0.704,2.846,1.999,5.795,4.554,7.233
			c1.996,1.124,4.407,1.128,6.697,1.104"/>
	</g>
	<g>
		
			<linearGradient id="SVGID_4_" gradientUnits="userSpaceOnUse" x1="33.1758" y1="203.5479" x2="103.2646" y2="203.5479" gradientTransform="matrix(-1 0 0 1 124.4404 0)">
			<stop  offset="0" style="stop-color:#453AE9"/>
			<stop  offset="0.2124" style="stop-color:#453FE9"/>
			<stop  offset="0.4732" style="stop-color:#434EE8"/>
			<stop  offset="0.7581" style="stop-color:#4167E7"/>
			<stop  offset="1" style="stop-color:#3F82E6"/>
		</linearGradient>
		<path fill="url(#SVGID_4_)" d="M90.356,215.934c2.424-5.394-0.197-12.497-5.544-15.023c-5.347-2.526-12.499-0.04-15.125,5.258
			c-0.151-5.665-4.617-10.924-10.183-11.99c-5.566-1.066-11.659,2.17-13.893,7.379c0.726-5.054-3.289-10.117-8.283-11.181
			c-4.994-1.063-10.372,1.506-13.276,5.706c-2.905,4.2-3.501,9.731-2.275,14.688c0.522,2.11,1.482,4.297,3.377,5.364
			c1.48,0.833,3.268,0.836,4.966,0.818"/>
	</g>
	<g>
		<g>
			
				<linearGradient id="SVGID_5_" gradientUnits="userSpaceOnUse" x1="26.5469" y1="372.1426" x2="190.2876" y2="372.1426" gradientTransform="matrix(0.9713 -0.238 0.238 0.9713 -80.5359 36.8841)">
				<stop  offset="0" style="stop-color:#453AE9"/>
				<stop  offset="0.2124" style="stop-color:#453FE9"/>
				<stop  offset="0.4732" style="stop-color:#434EE8"/>
				<stop  offset="0.7581" style="stop-color:#4167E7"/>
				<stop  offset="1" style="stop-color:#3F82E6"/>
			</linearGradient>
			<path fill="url(#SVGID_5_)" d="M184.643,402.492c0.561,7.147-8.101,12.146-15.136,10.765c-7.035-1.382-12.458-6.819-17.446-11.97
				c-4.987-5.15-10.487-10.54-17.549-11.775c-11.626-2.035-22.533,7.9-34.304,7.045c-11.672-0.85-19.71-11.615-26.508-21.142
				C66.902,365.889,57.664,355.64,46,356.601c-4.263,0.351-8.312,2.24-12.587,2.366s-9.245-2.576-9.196-6.853
				c0.048-4.187,4.57-6.672,8.444-8.259c11.38-4.663,22.759-9.325,34.139-13.988c12.694-5.201,27.175-10.404,39.674-4.751
				c10.907,4.934,17.49,17.133,28.805,21.043c14.862,5.136,32.097-5.954,46.542,0.258c10.879,4.679,15.866,18.008,14.584,29.78
				c-1.282,11.773-7.435,22.376-13.449,32.577"/>
		</g>
		<path fill="none" stroke="#FFF9F7" stroke-width="0.65" stroke-miterlimit="10" d="M25.553,353.348
			c16.231-8.97,43.671-7.854,60.928-1.066c10.813,4.254,20.587,11.521,32.059,13.37c9.936,1.602,20.051-1.06,30.114-0.868
			c16.324,0.31,33.361,11.993,42.98,25.186"/>
		<path fill="none" stroke="#FFF9F7" stroke-width="0.65" stroke-miterlimit="10" d="M122.625,365.878c0,0-7.874-36.025-23.936-42.8
			"/>
		<path fill="none" stroke="#FFF9F7" stroke-width="0.65" stroke-miterlimit="10" d="M62.735,347.306c0,0-1.724,8.805-16.734,9.295"
			/>
		<path fill="none" stroke="#FFF9F7" stroke-width="0.65" stroke-miterlimit="10" d="M165.82,369.364
			c0,0,1.992-17.143-11.351-22.046"/>
		<path fill="none" stroke="#FFF9F7" stroke-width="0.65" stroke-miterlimit="10" d="M179.682,377.526
			c0,0-10.535,17.41-31.98,19.157"/>
		<path fill="none" stroke="#FFF9F7" stroke-width="0.65" stroke-miterlimit="10" d="M86.791,322.9c0,0,13.36,8.991,20.523,39.829"
			/>
		<path fill="none" stroke="#FFF9F7" stroke-width="0.65" stroke-miterlimit="10" d="M118.54,365.651
			c0,0-16.036,21.123-34.684,21.618"/>
		<path fill="none" stroke="#FFF9F7" stroke-width="0.65" stroke-miterlimit="10" d="M63.414,363.403c0,0,19.771-0.948,25.487-9.552
			"/>
		<path fill="none" stroke="#FFF9F7" stroke-width="0.65" stroke-miterlimit="10" d="M38.994,341.15c0,0,3.747-1.98,9.876,5.297"/>
		<path fill="none" stroke="#FFF9F7" stroke-width="0.65" stroke-miterlimit="10" d="M60.489,332.581c0,0,6.319,3.314,9.367,14.843"
			/>
		<path fill="none" stroke="#FFF9F7" stroke-width="0.65" stroke-miterlimit="10" d="M134.512,389.512c0,0,29.021-2.05,26.555-22.4"
			/>
		<path fill="none" stroke="#FFF9F7" stroke-width="0.65" stroke-miterlimit="10" d="M135.279,346.159c0,0,8.538,7.626,3.863,17.878
			"/>
		<path fill="none" stroke="#FFF9F7" stroke-width="0.65" stroke-miterlimit="10" d="M178.647,345.64c0,0,9.9,18.733,5.455,34.222"
			/>
	</g>
	<g>
		<g>
			<path fill="#FFAE2C" d="M332.504,346.896c-6.807-2.984-7.14-13.345-2.436-19.099s12.325-8.052,19.472-10.091
				c7.146-2.04,14.763-4.431,19.347-10.281c7.545-9.63,3.799-24.458,10.339-34.798c6.484-10.253,20.256-12.334,32.287-13.889
				c12.031-1.554,25.917-4.984,30.743-16.115c1.764-4.067,2.018-8.692,3.993-12.661c1.975-3.969,6.876-7.189,10.76-5.053
				c3.803,2.091,3.863,7.44,3.419,11.757c-1.304,12.681-2.607,25.362-3.912,38.043c-1.455,14.146-3.78,29.926-15.061,38.585
				c-9.844,7.556-24.214,7.606-33.321,16.035c-11.962,11.071-10.255,32.248-22.998,42.412c-9.597,7.655-24.219,5.694-34.352-1.235
				c-10.134-6.929-16.815-17.738-23.196-28.225"/>
		</g>
		<path fill="none" stroke="#FFF9F7" stroke-width="0.6738" stroke-miterlimit="10" d="M455.229,225.528
			c0.259,19.221-14.18,43.755-28.825,56.208c-9.176,7.803-20.599,13.182-27.898,22.762c-6.323,8.299-8.839,18.845-13.935,27.948
			c-8.268,14.769-27.277,24.625-44.04,26.965"/>
		<path fill="none" stroke="#FFF9F7" stroke-width="0.6738" stroke-miterlimit="10" d="M396.301,308.12
			c0,0,36.777,10.422,50.824-0.944"/>
		<path fill="none" stroke="#FFF9F7" stroke-width="0.6738" stroke-miterlimit="10" d="M442.566,262.466
			c0,0-7.204-5.883-0.311-19.841"/>
		<path fill="none" stroke="#FFF9F7" stroke-width="0.6738" stroke-miterlimit="10" d="M371.988,345.894
			c0,0,14.693,10.205,25.7,0.408"/>
		<path fill="none" stroke="#FFF9F7" stroke-width="0.6738" stroke-miterlimit="10" d="M357.749,354.572
			c0,0-10.76-18.145-1.868-38.599"/>
		<path fill="none" stroke="#FFF9F7" stroke-width="0.6738" stroke-miterlimit="10" d="M453.106,296.389
			c0,0-14.752,7.813-46.439-0.722"/>
		<path fill="none" stroke="#FFF9F7" stroke-width="0.6738" stroke-miterlimit="10" d="M398.506,304.497
			c0,0-11.464-24.987-2.796-42.272"/>
		<path fill="none" stroke="#FFF9F7" stroke-width="0.6738" stroke-miterlimit="10" d="M427.521,255.213
			c0,0-8.804,18.534-3.735,27.967"/>
		<path fill="none" stroke="#FFF9F7" stroke-width="0.6738" stroke-miterlimit="10" d="M459.804,243.777
			c0,0-0.022,4.393-9.672,6.436"/>
		<path fill="none" stroke="#FFF9F7" stroke-width="0.6738" stroke-miterlimit="10" d="M457.122,267.614
			c0,0-6.119,4.154-18.146,1.302"/>
		<path fill="none" stroke="#FFF9F7" stroke-width="0.6738" stroke-miterlimit="10" d="M368.887,307.426
			c0,0-12.32,27.527,7.485,35.227"/>
		<path fill="none" stroke="#FFF9F7" stroke-width="0.6738" stroke-miterlimit="10" d="M408.134,329.33
			c0,0-11.146,4.074-18.229-5.213"/>
		<path fill="none" stroke="#FFF9F7" stroke-width="0.6738" stroke-miterlimit="10" d="M387.398,369.221
			c0,0-21.964-0.113-33.945-11.751"/>
	</g>
	<g>
		<g>
			<path fill="#00875B" d="M165.355,369.228c-2.064,4.508-8.571,4.39-12.045,1.015s-4.699-8.609-5.775-13.515
				c-1.076-4.904-2.359-10.139-5.897-13.436c-5.825-5.427-15.229-3.384-21.528-8.153c-6.245-4.729-7.159-14.12-7.792-22.314
				c-0.633-8.195-2.39-17.708-9.232-21.344c-2.5-1.329-5.393-1.654-7.826-3.123c-2.433-1.469-4.313-4.893-2.863-7.451
				c1.419-2.505,4.775-2.368,7.469-1.924c7.915,1.304,15.83,2.607,23.745,3.911c8.83,1.454,18.659,3.552,23.768,11.475
				c4.458,6.913,4.082,16.642,9.109,23.086c6.603,8.465,19.931,8.012,25.942,16.975c4.528,6.75,2.883,16.581-1.75,23.21
				s-11.601,10.792-18.358,14.764"/>
		</g>
		<path fill="none" stroke="#FFF9F7" stroke-width="0.4395" stroke-miterlimit="10" d="M92.733,282.132
			c12.061,0.462,27.035,11.05,34.428,21.376c4.632,6.47,7.681,14.38,13.481,19.639c5.024,4.556,11.566,6.608,17.13,10.359
			c9.026,6.086,14.667,19.28,15.658,30.704"/>
		<path fill="none" stroke="#FFF9F7" stroke-width="0.4395" stroke-miterlimit="10" d="M111.74,309.684
			c0,0,10.86,5.825,20.355,1.939"/>
		<path fill="none" stroke="#FFF9F7" stroke-width="0.4395" stroke-miterlimit="10" d="M155.744,332.972
			c0,0-28.641,5.267-38.959-1.485"/>
		<path fill="none" stroke="#FFF9F7" stroke-width="0.4395" stroke-miterlimit="10" d="M115.537,291.929
			c0,0-3.894,4.681-12.451-0.448"/>
		<path fill="none" stroke="#FFF9F7" stroke-width="0.4395" stroke-miterlimit="10" d="M165.848,342.47
			c0,0,6.817-9.607,0.986-17.382"/>
		<path fill="none" stroke="#FFF9F7" stroke-width="0.4395" stroke-miterlimit="10" d="M170.885,352.396
			c0,0-11.683,6.681-24.257-0.017"/>
		<path fill="none" stroke="#FFF9F7" stroke-width="0.4395" stroke-miterlimit="10" d="M137.108,285.92
			c0,0,4.481,10.245-1.772,31.41"/>
		<path fill="none" stroke="#FFF9F7" stroke-width="0.4395" stroke-miterlimit="10" d="M104.307,279.641
			c0,0,2.754,0.162,3.761,6.761"/>
		<path fill="none" stroke="#FFF9F7" stroke-width="0.4395" stroke-miterlimit="10" d="M119.179,282.247
			c0,0,2.432,4.28,0.301,12.326"/>
		<path fill="none" stroke="#FFF9F7" stroke-width="0.4395" stroke-miterlimit="10" d="M141.638,343.292
			c0,0,16.912,9.253,22.302-3.897"/>
		<path fill="none" stroke="#FFF9F7" stroke-width="0.4395" stroke-miterlimit="10" d="M156.488,317.454
			c0,0,2.238,7.679-3.787,12.166"/>
		<path fill="none" stroke="#FFF9F7" stroke-width="0.4395" stroke-miterlimit="10" d="M180.914,332.813
			c0,0-0.695,14.862-8.333,22.586"/>
	</g>
	<g>
		<g>
			<path fill="#00875B" d="M335.13,305.711c-4.944-0.372-7.091-6.516-5.131-10.945c1.96-4.429,6.445-7.394,10.672-10.104
				c4.228-2.711,8.691-5.729,10.556-10.192c3.069-7.346-2.11-15.457,0.178-23.019c2.27-7.498,10.76-11.613,18.227-15.05
				c7.466-3.437,15.778-8.384,16.814-16.063c0.379-2.806-0.319-5.632,0.214-8.423c0.534-2.792,3.093-5.743,5.995-5.271
				c2.842,0.462,3.877,3.657,4.396,6.338c1.523,7.875,3.047,15.751,4.57,23.626c1.699,8.786,3.141,18.732-2.517,26.273
				c-4.938,6.58-14.192,9.602-18.492,16.552c-5.648,9.13-0.6,21.473-6.92,30.221c-4.76,6.588-14.552,8.456-22.376,6.411
				c-7.824-2.046-14.146-7.137-20.216-12.097"/>
		</g>
		<path fill="none" stroke="#FFF9F7" stroke-width="0.4395" stroke-miterlimit="10" d="M391.622,207.384
			c3.75,11.473-0.984,29.19-8.104,39.706c-4.461,6.589-10.822,12.192-13.742,19.457c-2.529,6.292-2.186,13.14-3.773,19.66
			c-2.576,10.576-12.994,20.444-23.364,25.337"/>
		<path fill="none" stroke="#FFF9F7" stroke-width="0.4395" stroke-miterlimit="10" d="M372.375,234.769
			c0,0-1.696,12.207,5.243,19.764"/>
		<path fill="none" stroke="#FFF9F7" stroke-width="0.4395" stroke-miterlimit="10" d="M365.8,284.119
			c0,0-14.876-25.034-12.123-37.055"/>
		<path fill="none" stroke="#FFF9F7" stroke-width="0.4395" stroke-miterlimit="10" d="M390.345,232.17
			c0,0-5.741-2.027-3.899-11.833"/>
		<path fill="none" stroke="#FFF9F7" stroke-width="0.4395" stroke-miterlimit="10" d="M360.397,296.891
			c0,0,11.375,3.061,16.645-5.105"/>
		<path fill="none" stroke="#FFF9F7" stroke-width="0.4395" stroke-miterlimit="10" d="M352.835,305.059
			c0,0-10.318-8.64-8.399-22.756"/>
		<path fill="none" stroke="#FFF9F7" stroke-width="0.4395" stroke-miterlimit="10" d="M403.463,250.317
			c0,0-8.053,7.757-30.073,9.235"/>
		<path fill="none" stroke="#FFF9F7" stroke-width="0.4395" stroke-miterlimit="10" d="M397.973,217.375
			c0,0,0.805,2.639-5.035,5.873"/>
		<path fill="none" stroke="#FFF9F7" stroke-width="0.4395" stroke-miterlimit="10" d="M400.688,232.227
			c0,0-3.171,3.765-11.456,4.558"/>
		<path fill="none" stroke="#FFF9F7" stroke-width="0.4395" stroke-miterlimit="10" d="M351.227,274.469
			c0,0-2.812,19.071,11.393,19.565"/>
		<path fill="none" stroke="#FFF9F7" stroke-width="0.4395" stroke-miterlimit="10" d="M380.611,279.433
			c0,0-6.426,4.764-12.724,0.669"/>
		<path fill="none" stroke="#FFF9F7" stroke-width="0.4395" stroke-miterlimit="10" d="M374.68,307.671
			c0,0-14.181,4.504-24.074,0.02"/>
	</g>
	<ellipse opacity="0.71" fill="#FF8788" cx="332" cy="92.333" rx="62.333" ry="62"/>
	<g>
		<linearGradient id="SVGID_6_" gradientUnits="userSpaceOnUse" x1="228.9683" y1="57.2441" x2="290.4346" y2="57.2441">
			<stop  offset="0" style="stop-color:#453AE9"/>
			<stop  offset="0.2124" style="stop-color:#453FE9"/>
			<stop  offset="0.4732" style="stop-color:#434EE8"/>
			<stop  offset="0.7581" style="stop-color:#4167E7"/>
			<stop  offset="1" style="stop-color:#3F82E6"/>
		</linearGradient>
		<path fill="url(#SVGID_6_)" d="M229.766,68.107c-2.126-4.73,0.172-10.96,4.862-13.175c4.689-2.215,10.961-0.035,13.265,4.611
			c0.132-4.968,4.049-9.58,8.93-10.515c4.882-0.935,10.226,1.904,12.184,6.472c-0.637-4.433,2.884-8.873,7.264-9.806
			c4.38-0.933,9.096,1.321,11.644,5.004c2.547,3.683,3.069,8.534,1.994,12.881c-0.457,1.851-1.3,3.769-2.961,4.704
			c-1.298,0.73-2.866,0.733-4.355,0.718"/>
	</g>
	<g>
		<g>
			<path fill="#959595" d="M166.506,420.068L129.3,143.077c-0.662-4.927,2.795-9.457,7.722-10.118l193.084-25.935
				c4.926-0.662,9.456,2.795,10.118,7.722l37.205,276.992c0.662,4.927-2.795,9.456-7.722,10.118L176.624,427.79
				C171.698,428.452,167.167,424.995,166.506,420.068z"/>
			
				<linearGradient id="SVGID_7_" gradientUnits="userSpaceOnUse" x1="75.2202" y1="261.6064" x2="423.5547" y2="261.6064" gradientTransform="matrix(-0.003 0.9013 -0.9983 0.0225 515.2747 36.7472)">
				<stop  offset="0.0108" style="stop-color:#4D4D4D"/>
				<stop  offset="1" style="stop-color:#333333"/>
			</linearGradient>
			<path fill="url(#SVGID_7_)" d="M168.161,418.286l-36.794-273.927c-0.662-4.926,2.795-9.457,7.722-10.118l189.363-25.436
				c4.927-0.662,9.457,2.795,10.118,7.722l36.794,273.927c0.662,4.927-2.795,9.457-7.722,10.118l-189.363,25.436
				C173.353,426.67,168.822,423.213,168.161,418.286z"/>
			
				<rect x="127.118" y="184.907" transform="matrix(0.1331 0.9911 -0.9911 0.1331 484.6628 -19.3009)" fill="#FFFFFF" width="252.493" height="165"/>
			<polygon opacity="0.17" fill="#FFFFFF" points="262.734,416.844 204.562,424.104 244.209,118.569 302.382,111.309 			"/>
			
				<ellipse transform="matrix(0.1331 0.9911 -0.9911 0.1331 331.8104 -113.8688)" fill="#333333" cx="231" cy="132.75" rx="2.952" ry="3.281"/>
		</g>
		<g>
			<g>
				<linearGradient id="SVGID_8_" gradientUnits="userSpaceOnUse" x1="198.0278" y1="217.6768" x2="298.6016" y2="217.6768">
					<stop  offset="0" style="stop-color:#FFADA6"/>
					<stop  offset="0.2387" style="stop-color:#FFB2AB"/>
					<stop  offset="0.5318" style="stop-color:#FFC1B9"/>
					<stop  offset="0.8521" style="stop-color:#FFDACF"/>
					<stop  offset="0.9892" style="stop-color:#FFE7DB"/>
				</linearGradient>
				<path fill="url(#SVGID_8_)" d="M294.217,216.688l-90.328,12.576c-2.782,0.387-5.352-1.554-5.739-4.336l-0.073-0.522
					c-0.388-2.782,1.554-5.352,4.336-5.739l90.328-12.576c2.782-0.387,5.352,1.554,5.739,4.336l0.072,0.522
					C298.94,213.73,296.999,216.3,294.217,216.688z"/>
				<linearGradient id="SVGID_9_" gradientUnits="userSpaceOnUse" x1="200.668" y1="236.6416" x2="301.2422" y2="236.6416">
					<stop  offset="0" style="stop-color:#FFADA6"/>
					<stop  offset="0.2387" style="stop-color:#FFB2AB"/>
					<stop  offset="0.5318" style="stop-color:#FFC1B9"/>
					<stop  offset="0.8521" style="stop-color:#FFDACF"/>
					<stop  offset="0.9892" style="stop-color:#FFE7DB"/>
				</linearGradient>
				<path fill="url(#SVGID_9_)" d="M296.857,235.652l-90.328,12.577c-2.782,0.387-5.352-1.554-5.739-4.336l-0.073-0.523
					c-0.387-2.782,1.554-5.352,4.336-5.739l90.328-12.577c2.782-0.387,5.352,1.554,5.739,4.336l0.072,0.523
					C301.581,232.696,299.64,235.265,296.857,235.652z"/>
				<linearGradient id="SVGID_10_" gradientUnits="userSpaceOnUse" x1="203.3086" y1="255.6064" x2="303.8828" y2="255.6064">
					<stop  offset="0" style="stop-color:#FFADA6"/>
					<stop  offset="0.2387" style="stop-color:#FFB2AB"/>
					<stop  offset="0.5318" style="stop-color:#FFC1B9"/>
					<stop  offset="0.8521" style="stop-color:#FFDACF"/>
					<stop  offset="0.9892" style="stop-color:#FFE7DB"/>
				</linearGradient>
				<path fill="url(#SVGID_10_)" d="M299.498,254.617l-90.328,12.577c-2.782,0.387-5.352-1.555-5.739-4.337l-0.073-0.522
					c-0.387-2.782,1.554-5.352,4.336-5.739l90.328-12.576c2.782-0.388,5.352,1.554,5.739,4.336l0.072,0.522
					C304.222,251.661,302.28,254.23,299.498,254.617z"/>
				<linearGradient id="SVGID_11_" gradientUnits="userSpaceOnUse" x1="205.9492" y1="274.5723" x2="306.5234" y2="274.5723">
					<stop  offset="0" style="stop-color:#FFADA6"/>
					<stop  offset="0.2387" style="stop-color:#FFB2AB"/>
					<stop  offset="0.5318" style="stop-color:#FFC1B9"/>
					<stop  offset="0.8521" style="stop-color:#FFDACF"/>
					<stop  offset="0.9892" style="stop-color:#FFE7DB"/>
				</linearGradient>
				<path fill="url(#SVGID_11_)" d="M302.139,273.583l-90.328,12.576c-2.782,0.387-5.352-1.555-5.739-4.337l-0.073-0.522
					c-0.388-2.782,1.554-5.352,4.336-5.739l90.327-12.576c2.783-0.387,5.353,1.555,5.739,4.337l0.073,0.522
					C306.862,270.626,304.921,273.195,302.139,273.583z"/>
				<linearGradient id="SVGID_12_" gradientUnits="userSpaceOnUse" x1="208.5117" y1="292.9785" x2="309.0859" y2="292.9785">
					<stop  offset="0" style="stop-color:#FFADA6"/>
					<stop  offset="0.2387" style="stop-color:#FFB2AB"/>
					<stop  offset="0.5318" style="stop-color:#FFC1B9"/>
					<stop  offset="0.8521" style="stop-color:#FFDACF"/>
					<stop  offset="0.9892" style="stop-color:#FFE7DB"/>
				</linearGradient>
				<path fill="url(#SVGID_12_)" d="M304.701,291.99l-90.328,12.576c-2.782,0.387-5.352-1.555-5.739-4.337l-0.073-0.522
					c-0.387-2.782,1.554-5.352,4.336-5.739l90.328-12.576c2.782-0.387,5.352,1.555,5.739,4.337l0.072,0.522
					C309.425,289.033,307.483,291.603,304.701,291.99z"/>
			</g>
			<g>
				
					<text transform="matrix(0.9905 -0.1379 0.1379 0.9905 202.6162 225.626)" fill="#FFFFFF" font-family="'Montserrat-Light'" font-size="4.3172">Name</text>
				
					<text transform="matrix(0.9905 -0.1379 0.1379 0.9905 205.2246 244.3584)" fill="#FFFFFF" font-family="'Montserrat-Light'" font-size="4.3172">Email adress</text>
				
					<text transform="matrix(0.9905 -0.1379 0.1379 0.9905 207.833 263.0928)" fill="#FFFFFF" font-family="'Montserrat-Light'" font-size="4.3172">Country</text>
				
					<text transform="matrix(0.9905 -0.1379 0.1379 0.9905 210.498 282.2324)" fill="#FFFFFF" font-family="'Montserrat-Light'" font-size="4.3172">Phone</text>
				
					<text transform="matrix(0.9905 -0.1379 0.1379 0.9905 213.0493 300.5586)" fill="#FFFFFF" font-family="'Montserrat-Light'" font-size="4.3172">Password</text>
			</g>
		</g>
		<text transform="matrix(0.9907 -0.1361 0.1361 0.9907 193.624 181.8311)"><tspan x="0" y="0" fill="#453AE9" font-family="'MyriadPro-Regular'" font-size="7.7338" letter-spacing="1">ParsRix Registration</tspan><tspan x="10.958" y="16.757" fill="#453AE9" font-family="'MyriadPro-Regular'" font-size="7.7338" letter-spacing="1">Enter your data</tspan></text>
		<linearGradient id="SVGID_13_" gradientUnits="userSpaceOnUse" x1="251.0234" y1="336.502" x2="270.8043" y2="354.399">
			<stop  offset="0" style="stop-color:#453AE9"/>
			<stop  offset="0.2124" style="stop-color:#453FE9"/>
			<stop  offset="0.4732" style="stop-color:#434EE8"/>
			<stop  offset="0.7581" style="stop-color:#4167E7"/>
			<stop  offset="1" style="stop-color:#3F82E6"/>
		</linearGradient>
		<polygon fill="url(#SVGID_13_)" points="295.963,350.247 233.893,359.134 232.049,346.251 294.119,337.364 		"/>
		
			<text transform="matrix(0.9899 -0.1417 0.1417 0.9899 242.5659 352.8398)" fill="#FFFFFF" font-family="'Montserrat-Regular'" font-size="3.6461">CREATE ACCOUNT</text>
		<text transform="matrix(0.9899 -0.1417 0.1417 0.9899 237.54 371.2422)"><tspan x="0" y="0" font-family="'Montserrat-Light'" font-size="3.1556">Already have an account? </tspan><tspan x="40.208" y="0" fill="#FF8586" font-family="'Montserrat-Light'" font-size="3.1556">Sing in</tspan></text>
		
			<rect x="202.313" y="328.057" transform="matrix(0.9899 -0.1416 0.1416 0.9899 -44.6401 32.2106)" fill="none" stroke="#453AE9" stroke-width="0.6032" stroke-miterlimit="10" width="3.303" height="3.303"/>
		
			<rect x="213.213" y="319.272" transform="matrix(0.9899 -0.1417 0.1417 0.9899 -44.1935 41.493)" fill="none" width="111.964" height="23.451"/>
		<text transform="matrix(0.9899 -0.1417 0.1417 0.9899 212.4092 329.2061)"><tspan x="0" y="0" font-family="'Montserrat-Light'" font-size="2.6422">Lorem ipsum dolor sit amet, consectetuer adipiscing elit, sed diam nonummy nibh </tspan><tspan x="0" y="3.171" font-family="'Montserrat-Light'" font-size="2.6422">euismod tincidunt ut laoreet dolore magna aliquam erat </tspan></text>
	</g>
	<g>
		<path fill="#FFB2B6" d="M272.606,277.676c0,0-5.85-10.92-10.92-12.87c0,0-1.95-3.705,3.314-1.755c0,0-1.105-0.632-1.753-2.321
			c-0.115-0.302,0.137-0.615,0.459-0.597c2.358,0.138,10.432,1.619,13.579,15.203l-4.484,3.314"/>
		<g>
			<rect x="338.629" y="436.442" fill="#FFFFFF" width="5.816" height="3.142"/>
			<rect x="302.052" y="436.442" fill="#FFFFFF" width="5.815" height="3.142"/>
			<path fill="#FFFFFF" d="M344.879,438.747v4.345h-13.774C331.104,443.092,328.809,435.9,344.879,438.747z"/>
			<path fill="#FFFFFF" d="M308.221,438.747v4.345h-13.774C294.446,443.092,292.151,435.9,308.221,438.747z"/>
			<linearGradient id="SVGID_14_" gradientUnits="userSpaceOnUse" x1="325.1406" y1="352.4209" x2="321.6406" y2="434.9208">
				<stop  offset="0" style="stop-color:#453AE9"/>
				<stop  offset="0.2124" style="stop-color:#453FE9"/>
				<stop  offset="0.4732" style="stop-color:#434EE8"/>
				<stop  offset="0.7581" style="stop-color:#4167E7"/>
				<stop  offset="1" style="stop-color:#3F82E6"/>
			</linearGradient>
			<path fill="url(#SVGID_14_)" d="M341.703,340.915l-1.826,57.071c-0.046,1.407,0.041,2.815,0.258,4.206l5.356,34.368h-10.417
				l-7.269-35.885c-0.205-1.013-0.34-2.039-0.405-3.07l-2.143-34.07c-0.029-0.471-0.68-0.568-0.847-0.128l-11.143,29.356
				c-0.298,0.785-0.486,1.606-0.561,2.441l-3.676,41.355h-8.997l-0.463-44.939c-0.007-0.658,0.057-1.314,0.19-1.958l10.216-49.222
				L341.703,340.915z"/>
			<path fill="#00AEE0" d="M310.926,305.048l-20.299-2.538c-2.069-0.042-4.02-0.978-5.349-2.565l-15.945-21.611l9.514-6.666
				l12.116,16.836c1.286,1.787,3.32,2.889,5.521,2.987L340,288.667l5,62.833l-38.56-4.585L310.926,305.048z"/>
			<path fill="#00AEE0" d="M340.874,295.696l16.559,23.49c2.102,2.98,1.394,7.1-1.582,9.209l-16.16,11.454l-6.392-9.943
				l12.584-6.854c0.342-0.186,0.418-0.644,0.154-0.931l-10.371-11.272l0.947-16.572l1.894-1.895L340.874,295.696z"/>
		</g>
		<path fill="#FFB2B6" d="M315.5,270.5c0,0-2.167,2-3.667,4.5l1.167,1l-1.667,4.5l7.834,2l5.5-13.5L315.5,270.5z"/>
		<g>
			<path fill="#452B2C" d="M324.608,261.936c-2.964-0.954-6.258,0.485-8.311,3.632s-2.783,7.876-1.843,11.932
				c-1.952-0.622-4.12,0.362-5.441,2.471c-1.32,2.108-1.738,5.252-1.047,7.886c-1.693,0.44-3.458,0.925-4.817,2.407
				c-1.359,1.481-2.15,4.291-1.293,6.385c0.965,2.354,3.281,2.574,5.217,2.51c12.396-0.407,24.792-0.814,37.188-1.222
				c0.973-0.031,1.979-0.075,2.854-0.669c1.667-1.132,2.396-4.366,1.495-6.636c-0.9-2.269-3.245-3.104-4.809-1.714
				c2.013-1.765,2.785-5.834,1.662-8.769c-1.122-2.935-3.967-4.284-6.129-2.907c2.072-3.422,1.664-8.933-0.386-12.38
				c-2.051-3.447-5.354-5.032-8.554-5.194c-3.198-0.162-6.354,0.929-9.46,2.012c-0.016,1.469-0.031,2.938-0.047,4.406"/>
		</g>
	</g>
</g>
</svg>
